Make visualisations wrapper function — make_viz • ManyEcoEvo
…
#> Package 'merDeriv' needs to be installed to compute confidence intervals
#>   for random effect parameters.
#> Package 'merDeriv' needs to be installed to compute confidence intervals
#>   for random effect parameters.
#> Package 'merDeriv' needs to be installed to compute confidence intervals
#>   for random effect parameters.
#> Package 'merDeriv' needs to be installed to compute confidence intervals
#>   for random effect parameters.
#> Package 'merDeriv' needs to be installed to compute confidence intervals
#>   for random effect parameters.
#> Package 'merDeriv' needs to be installed to compute confidence intervals
#>   for random effect parameters.
#> Package 'merDeriv' needs to be installed to compute confidence intervals
#>   for random effect parameters.
#> # A tibble: 133 × 16
#>    exclusion_set dataset publishable_subset expertise_subset collinearity_subset
#>    <chr>         <chr>   <chr>              <chr>            <chr>              
#>  1 complete      blue t… All                All              All                
#>  2 complete      blue t… All                All              All                
#>  3 complete      blue t… All                All              All                
#>  4 complete      blue t… All                All              All                
#>  5 complete      blue t… All                All              All                
#>  6 complete      blue t… All                All              All                
#>  7 complete      blue t… All                All              All                
#>  8 complete      eucaly… All                All              All                
#>  9 complete      eucaly… All                All              All                
#> 10 complete      eucaly… All                All              All                
#> # ℹ 123 more rows
#> # ℹ 11 more variables: estimate_type <chr>, model_name <chr>, model <list>,
#> #   mod_summary <list>, tidy_mod_summary <list>, mod_fit_stats <list>,
#> #   mod_glance <list>, funnel_plot <list>, forest_plot <list>,
#> #   MA_fit_stats <list>, model_params <list>
…
