Wrapper function to standardise response variables — pmap_wrap • ManyEcoEvo
…
#> ! Returning "NA" for tupple:
#> 1. beta_estimate NA,
#> 2. beta_se 0.0048042,
#> 3. adjusted_df 341.
#> ✖ Required values for computing standardised effect sizes missing:
#> ! Returning "NA" for tupple:
#> 1. beta_estimate NA,
#> 2. beta_se 0.21,
#> 3. adjusted_df NA.
#> ✖ Required values for computing standardised effect sizes missing:
#> ! Returning "NA" for tupple:
#> 1. beta_estimate NA,
#> 2. beta_se 0.5756016,
#> 3. adjusted_df 3.536992.
#> # A tibble: 128 × 40
#>    response_id       submission_id analysis_id split_id TeamIdentifier id_col   
#>    <chr>                     <dbl>       <dbl>    <dbl> <chr>          <chr>    
#>  1 R_0MuZ4chnmwTaLiV             1           1        1 Bicheno        Bicheno-…
#>  2 R_0MuZ4chnmwTaLiV             1           1        2 Bicheno        Bicheno-…
#>  3 R_12R6XuSRUcRemui             1           1        1 Biloela        Biloela-…
#>  4 R_1BWpZlSbkmSofe1             1           1        1 Bingara        Bingara-…
#>  5 R_1Ej3sywrrnzy7KJ             1           1        1 Birchip        Birchip-…
#>  6 R_1FJQlMO4buRu6S2             1           1        1 Birdwoo        Birdwoo-…
#>  7 R_1ib6zw7qoq0lHlf             1           1        1 Blayney        Blayney-…
#>  8 R_1ItMbxJAVt7RRtX             1           1        1 Bodalla        Bodalla-…
#>  9 R_1kH1Ko3yaLsrD0E             1           1        1 Bombala        Bombala-…
#> 10 R_1l9qIgUeSEKY3ME             1           1        1 Bonalbo        Bonalbo-…
#> # ℹ 118 more rows
#> # ℹ 34 more variables: beta_estimate <dbl>, contrast <chr>, adjusted_df <dbl>,
#> #   beta_SE <dbl>, transformation <chr>, link_function_reported <chr>,
#> #   dataset <chr>, mixed_model <dbl>,
#> #   response_transformation_description <chr>,
#> #   response_transformation_status <chr>, response_variable_type <chr>,
#> #   response_construction_description <chr>, response_variable_name <chr>, …
…
#> ✔ Log-transformed out-of-sample predictions, using 10000 simulations.
#> ✔ Log-transformed out-of-sample predictions, using 10000 simulations.
#> ✔ Log-transformed out-of-sample predictions, using 10000 simulations.
#> ✔ Log-transformed out-of-sample predictions, using 10000 simulations.
#> ✔ Log-transformed out-of-sample predictions, using 10000 simulations.
#> ✔ Log-transformed out-of-sample predictions, using 10000 simulations.
#> ✔ Log-transformed out-of-sample predictions, using 10000 simulations.
#> ✔ Log-transformed out-of-sample predictions, using 10000 simulations.
#> ✔ Log-transformed out-of-sample predictions, using 10000 simulations.
#> ✔ Log-transformed out-of-sample predictions, using 10000 simulations.
#> ✔ Log-transformed out-of-sample predictions, using 10000 simulations.
#> ✔ Log-transformed out-of-sample predictions, using 10000 simulations.
#> ✔ Log-transformed out-of-sample predictions, using 10000 simulations.
#> ✔ Log-transformed out-of-sample predictions, using 10000 simulations.
#> # A tibble: 52 × 26
#>    response_id       submission_id analysis_id split_id response_transformatio…¹
#>    <chr>                     <dbl>       <dbl>    <dbl> <chr>                   
#>  1 R_1ItMbxJAVt7RRtX             1           1        1 NA                      
#>  2 R_1LTZWsikoIaKdMu             1           1        1 NA                      
#>  3 R_1LXqc8NAdABndjl             1           1        1 NA                      
#>  4 R_1NqVW3amqwy69rK             3           3        1 NA                      
#>  5 R_1l9qIgUeSEKY3ME             1           1        1 NA                      
#>  6 R_1l9qIgUeSEKY3ME             2           2        1 NA                      
#>  7 R_1r2FSn2AXuCimpi             1           1        1 NA                      
#>  8 R_1reUKfTYXhTqVMo             1           1        1 NA                      
#>  9 R_21I1NvXiVXIGkqp             1           1        1 NA                      
#> 10 R_21jtSu9hB9Shf6Y             1           1        1 NA                      
#> # ℹ 42 more rows
#> # ℹ abbreviated name: ¹​response_transformation_description
#> # ℹ 21 more variables: response_transformation_status <chr>,
#> #   response_variable_type <chr>, response_construction_description <chr>,
#> #   response_variable_name <chr>, response_id_S2 <chr>, id_col <chr>,
#> #   TeamIdentifier <chr>, question <chr>, file_name <chr>, filepath <chr>,
#> #   checks <named list>, exclusions_all <chr>, mixed_model <dbl>, …
…
