Split data frame by groups and name elements — named_group_split • ManyEcoEvo
…
#> 14 247      2007-04-17 Autumn 2007            2  380947  5959427 0     
#> 15 248      2007-04-17 Autumn 2007            3  381324  5959557 0     
#> 16 249      2007-04-17 Autumn 2007            4  380756  5959400 e     
#> 17 250      2007-04-17 Autumn 2007            5  381203  5959726 s     
#> 18 251      2007-04-17 Autumn 2007            6  381236  5959842 e     
#> # ℹ 35 more variables: `Landscape position` <chr>,
#> #   ExoticAnnualGrass_cover <dbl>, ExoticAnnualHerb_cover <dbl>,
#> #   ExoticPerennialHerb_cover <dbl>, ExoticPerennialGrass_cover <dbl>,
#> #   ExoticShrub_cover <dbl>, NativePerennialFern_cover <dbl>,
#> #   NativePerennialGrass_cover <dbl>, NativePerennialHerb_cover <dbl>,
#> #   NativePerennialGraminoid_cover <dbl>, NativeShrub_cover <dbl>,
#> #   BareGround_cover <dbl>, Litter_cover <dbl>, MossLichen_cover <dbl>, …
#> 
#> $Gough
#> # A tibble: 27 × 42
#>    SurveyID Date       Season      `Quadrat no` Easting Northing Aspect
#>    <fct>    <date>     <chr>              <dbl>   <dbl>    <dbl> <chr> 
#>  1 18       2006-07-26 Winter 2006            1  358873  5921525 0     
#>  2 19       2006-07-26 Winter 2006            2  359203  5921862 0     
#>  3 20       2006-07-26 Winter 2006            3  358793  5921874 se    
#>  4 21       2006-07-26 Winter 2006            4  358452  5921673 n     
#>  5 22       2006-07-26 Winter 2006            5  359497  5922192 s     
#>  6 23       2006-07-26 Winter 2006            6  359480  5955191 n     
#>  7 24       2006-07-26 Winter 2006            7  359428  5921795 s     
#>  8 25       2006-07-26 Winter 2006            8  358742  5921709 s     
#>  9 26       2006-07-26 Winter 2006            9  359198  5921949 s     
#> 10 135      2006-11-04 Spring 2006            1  358522  5921752 s     
#> # ℹ 17 more rows
#> # ℹ 35 more variables: `Landscape position` <chr>,
#> #   ExoticAnnualGrass_cover <dbl>, ExoticAnnualHerb_cover <dbl>,
#> #   ExoticPerennialHerb_cover <dbl>, ExoticPerennialGrass_cover <dbl>,
#> #   ExoticShrub_cover <dbl>, NativePerennialFern_cover <dbl>,
#> #   NativePerennialGrass_cover <dbl>, NativePerennialHerb_cover <dbl>,
#> #   NativePerennialGraminoid_cover <dbl>, NativeShrub_cover <dbl>, …
…
#>  8 151      2006-11-10 Spring 2006            4  330125  6010555 0     
#>  9 265      2007-04-18 Autumn 2007            1  330074  6010835 0     
#> 10 266      2007-04-18 Autumn 2007            2  330228  6010621 0     
#> 11 267      2007-04-18 Autumn 2007            3  330258  6010626 0     
#> 12 268      2007-04-18 Autumn 2007            4  330133  6010679 0     
#> # ℹ 35 more variables: `Landscape position` <chr>,
#> #   ExoticAnnualGrass_cover <dbl>, ExoticAnnualHerb_cover <dbl>,
#> #   ExoticPerennialHerb_cover <dbl>, ExoticPerennialGrass_cover <dbl>,
#> #   ExoticShrub_cover <dbl>, NativePerennialFern_cover <dbl>,
#> #   NativePerennialGrass_cover <dbl>, NativePerennialHerb_cover <dbl>,
#> #   NativePerennialGraminoid_cover <dbl>, NativeShrub_cover <dbl>,
#> #   BareGround_cover <dbl>, Litter_cover <dbl>, MossLichen_cover <dbl>, …
#> 
#> $JClark
#> # A tibble: 21 × 42
#>    SurveyID Date       Season      `Quadrat no` Easting Northing Aspect
#>    <fct>    <date>     <chr>              <dbl>   <dbl>    <dbl> <chr> 
#>  1 35       2006-07-26 Winter 2006            1  367739  5821489 sw    
#>  2 36       2006-07-26 Winter 2006            2  368058  5872589 w     
#>  3 37       2006-07-26 Winter 2006            3  368143  5872626 s     
#>  4 38       2006-07-26 Winter 2006            4  368131  5872189 s     
#>  5 39       2006-07-26 Winter 2006            5  367696  5872366 nw    
#>  6 40       2006-07-26 Winter 2006            6  368650  5872203 w     
#>  7 41       2006-07-26 Winter 2006            7  368188  5872013 se    
#>  8 152      2006-12-07 Spring 2006            1  367727  5872320 s     
#>  9 153      2006-12-07 Spring 2006            2  367851  5872147 nw    
#> 10 154      2006-12-07 Spring 2006            3  367744  5871824 w     
#> # ℹ 11 more rows
#> # ℹ 35 more variables: `Landscape position` <chr>,
#> #   ExoticAnnualGrass_cover <dbl>, ExoticAnnualHerb_cover <dbl>,
#> #   ExoticPerennialHerb_cover <dbl>, ExoticPerennialGrass_cover <dbl>,
#> #   ExoticShrub_cover <dbl>, NativePerennialFern_cover <dbl>,
#> #   NativePerennialGrass_cover <dbl>, NativePerennialHerb_cover <dbl>,
#> #   NativePerennialGraminoid_cover <dbl>, NativeShrub_cover <dbl>, …
#> 
#> $Kellock
#> # A tibble: 27 × 42
#>    SurveyID Date       Season      `Quadrat no` Easting Northing Aspect
#>    <fct>    <date>     <chr>              <dbl>   <dbl>    <dbl> <chr> 
#>  1 42       2006-07-26 Winter 2006            1  409176  5987415 n     
#>  2 43       2006-07-25 Winter 2006            2  409242  5987228 s     
#>  3 44       2006-07-25 Winter 2006            3  408941  5987483 e     
#>  4 45       2006-07-26 Winter 2006            4  409111  5987866 s     
#>  5 46       2006-07-25 Winter 2006            5  409489  5987803 0     
#>  6 47       2006-07-25 Winter 2006            6  408888  5987382 se    
#>  7 48       2006-07-25 Winter 2006            7  409174  5987798 s     
#>  8 49       2006-07-25 Winter 2006            8  408864  5987984 w     
#>  9 50       2006-07-25 Winter 2006            9  409135  5987761 ne    
#> 10 159      2006-11-10 Spring 2006            1  408962  5987848 w     
#> # ℹ 17 more rows
#> # ℹ 35 more variables: `Landscape position` <chr>,
#> #   ExoticAnnualGrass_cover <dbl>, ExoticAnnualHerb_cover <dbl>,
#> #   ExoticPerennialHerb_cover <dbl>, ExoticPerennialGrass_cover <dbl>,
#> #   ExoticShrub_cover <dbl>, NativePerennialFern_cover <dbl>,
#> #   NativePerennialGrass_cover <dbl>, NativePerennialHerb_cover <dbl>,
#> #   NativePerennialGraminoid_cover <dbl>, NativeShrub_cover <dbl>, …
#> 
#> $Martin
#> # A tibble: 33 × 42
#>    SurveyID Date       Season      `Quadrat no` Easting Northing Aspect
#>    <fct>    <date>     <chr>              <dbl>   <dbl>    <dbl> <chr> 
#>  1 51       2006-07-20 Winter 2006            1  387782  5968745 e     
#>  2 52       2006-07-20 Winter 2006            2  388746  5967248 0     
#>  3 53       2006-07-20 Winter 2006            3  388765  5956890 ne    
#>  4 54       2006-07-20 Winter 2006            4  388358  5956799 0     
#>  5 55       2006-07-20 Winter 2006            5  388477  5956640 0     
#>  6 56       2006-07-20 Winter 2006            6  388029  5956943 0     
#>  7 57       2006-07-20 Winter 2006            7  388341  5956084 0     
#>  8 58       2006-07-20 Winter 2006            8  388423  5956006 se    
#>  9 59       2006-07-20 Winter 2006            9  388452  5971319 0     
#> 10 60       2006-07-20 Winter 2006           10  388732  5960630 0     
#> # ℹ 23 more rows
#> # ℹ 35 more variables: `Landscape position` <chr>,
#> #   ExoticAnnualGrass_cover <dbl>, ExoticAnnualHerb_cover <dbl>,
#> #   ExoticPerennialHerb_cover <dbl>, ExoticPerennialGrass_cover <dbl>,
#> #   ExoticShrub_cover <dbl>, NativePerennialFern_cover <dbl>,
#> #   NativePerennialGrass_cover <dbl>, NativePerennialHerb_cover <dbl>,
#> #   NativePerennialGraminoid_cover <dbl>, NativeShrub_cover <dbl>, …
#> 
#> $McCracken
#> # A tibble: 24 × 42
#>    SurveyID Date       Season      `Quadrat no` Easting Northing Aspect
#>    <fct>    <date>     <chr>              <dbl>   <dbl>    <dbl> <chr> 
#>  1 62       2006-07-18 Winter 2006            1  358110  5957069 0     
#>  2 63       2006-07-18 Winter 2006            2  358317  5957468 0     
#>  3 64       2006-07-18 Winter 2006            3  357720  5957153 0     
#>  4 65       2006-07-18 Winter 2006            4  358331  5957240 0     
#>  5 66       2006-07-18 Winter 2006            5  358632  5957291 0     
#>  6 67       2006-07-18 Winter 2006            6  358145  5957383 0     
#>  7 68       2006-07-18 Winter 2006            7  358137  5957448 0     
#>  8 69       2006-07-18 Winter 2006            8  358289  5956904 0     
#>  9 179      2006-11-11 Spring 2006            1  358300  5956890 0     
#> 10 180      2006-11-11 Spring 2006            2  358234  5957048 0     
#> # ℹ 14 more rows
#> # ℹ 35 more variables: `Landscape position` <chr>,
#> #   ExoticAnnualGrass_cover <dbl>, ExoticAnnualHerb_cover <dbl>,
#> #   ExoticPerennialHerb_cover <dbl>, ExoticPerennialGrass_cover <dbl>,
#> #   ExoticShrub_cover <dbl>, NativePerennialFern_cover <dbl>,
#> #   NativePerennialGrass_cover <dbl>, NativePerennialHerb_cover <dbl>,
#> #   NativePerennialGraminoid_cover <dbl>, NativeShrub_cover <dbl>, …
…
#> 11 304      2007-05-08 Autumn 2007            1  377394  5876407 n     
#> 12 305      2007-05-08 Autumn 2007            2  377181  5876421 n     
#> 13 306      2007-05-08 Autumn 2007            3  377259  5876280 e     
#> 14 307      2007-05-08 Autumn 2007            4  377951  5876374 e     
#> 15 308      2007-05-08 Autumn 2007            5  377623  5876345 0     
#> # ℹ 35 more variables: `Landscape position` <chr>,
#> #   ExoticAnnualGrass_cover <dbl>, ExoticAnnualHerb_cover <dbl>,
#> #   ExoticPerennialHerb_cover <dbl>, ExoticPerennialGrass_cover <dbl>,
#> #   ExoticShrub_cover <dbl>, NativePerennialFern_cover <dbl>,
#> #   NativePerennialGrass_cover <dbl>, NativePerennialHerb_cover <dbl>,
#> #   NativePerennialGraminoid_cover <dbl>, NativeShrub_cover <dbl>,
#> #   BareGround_cover <dbl>, Litter_cover <dbl>, MossLichen_cover <dbl>, …
#> 
#> $Rokahr
#> # A tibble: 21 × 42
#>    SurveyID Date       Season      `Quadrat no` Easting Northing Aspect
#>    <fct>    <date>     <chr>              <dbl>   <dbl>    <dbl> <chr> 
#>  1 75       2006-07-25 Winter 2006            1  387771  5985347 0     
#>  2 76       2006-07-25 Winter 2006            2  388366  5985356 0     
#>  3 77       2006-07-25 Winter 2006            3  387809  5985141 0     
#>  4 78       2006-07-25 Winter 2006            4  387671  5984967 0     
#>  5 79       2006-07-25 Winter 2006            5  387695  5985380 0     
#>  6 80       2006-07-25 Winter 2006            6  387753  5985068 0     
#>  7 81       2006-07-25 Winter 2006            7  388043  5985088 0     
#>  8 192      2006-11-10 Spring 2006            1  387721  5985370 0     
#>  9 193      2006-11-10 Spring 2006            2  388091  5985252 0     
#> 10 194      2006-11-10 Spring 2006            3  387748  5985167 0     
#> # ℹ 11 more rows
#> # ℹ 35 more variables: `Landscape position` <chr>,
#> #   ExoticAnnualGrass_cover <dbl>, ExoticAnnualHerb_cover <dbl>,
#> #   ExoticPerennialHerb_cover <dbl>, ExoticPerennialGrass_cover <dbl>,
#> #   ExoticShrub_cover <dbl>, NativePerennialFern_cover <dbl>,
#> #   NativePerennialGrass_cover <dbl>, NativePerennialHerb_cover <dbl>,
#> #   NativePerennialGraminoid_cover <dbl>, NativeShrub_cover <dbl>, …
…
#>  8 202      2006-11-14 Spring 2006            4  383247  5955254 nw    
#>  9 316      2007-04-17 Autumn 2007            1  383431  5955513 w     
#> 10 317      2007-04-17 Autumn 2007            2  383359  5955547 0     
#> 11 318      2007-04-17 Autumn 2007            3  383463  5955256 0     
#> 12 319      2007-04-17 Autumn 2007            4  383492  5955228 s     
#> # ℹ 35 more variables: `Landscape position` <chr>,
#> #   ExoticAnnualGrass_cover <dbl>, ExoticAnnualHerb_cover <dbl>,
#> #   ExoticPerennialHerb_cover <dbl>, ExoticPerennialGrass_cover <dbl>,
#> #   ExoticShrub_cover <dbl>, NativePerennialFern_cover <dbl>,
#> #   NativePerennialGrass_cover <dbl>, NativePerennialHerb_cover <dbl>,
#> #   NativePerennialGraminoid_cover <dbl>, NativeShrub_cover <dbl>,
#> #   BareGround_cover <dbl>, Litter_cover <dbl>, MossLichen_cover <dbl>, …
#> 
#> $Staff
#> # A tibble: 27 × 42
#>    SurveyID Date       Season      `Quadrat no` Easting Northing Aspect
#>    <fct>    <date>     <chr>              <dbl>   <dbl>    <dbl> <chr> 
#>  1 86       2006-07-27 Winter 2006            1  385708  5939744 nw    
#>  2 87       2006-07-27 Winter 2006            2  386193  5939749 s     
#>  3 88       2006-07-27 Winter 2006            3  385599  5939313 0     
#>  4 89       2006-07-27 Winter 2006            4  385701  5939171 sw    
#>  5 90       2006-07-27 Winter 2006            5  386179  5939590 n     
#>  6 91       2006-07-27 Winter 2006            6  386037  5939836 n     
#>  7 92       2006-07-27 Winter 2006            7  385604  5939140 e     
#>  8 93       2006-07-27 Winter 2006            8  385700  5939655 s     
#>  9 94       2006-07-27 Winter 2006            9  385991  5939583 n     
#> 10 203      2006-11-15 Spring 2006            1  386235  5939864 nw    
#> # ℹ 17 more rows
#> # ℹ 35 more variables: `Landscape position` <chr>,
#> #   ExoticAnnualGrass_cover <dbl>, ExoticAnnualHerb_cover <dbl>,
#> #   ExoticPerennialHerb_cover <dbl>, ExoticPerennialGrass_cover <dbl>,
#> #   ExoticShrub_cover <dbl>, NativePerennialFern_cover <dbl>,
#> #   NativePerennialGrass_cover <dbl>, NativePerennialHerb_cover <dbl>,
#> #   NativePerennialGraminoid_cover <dbl>, NativeShrub_cover <dbl>, …
#> 
#> $Stoney
#> # A tibble: 21 × 42
#>    SurveyID Date       Season      `Quadrat no` Easting Northing Aspect
#>    <fct>    <date>     <chr>              <dbl>   <dbl>    <dbl> <chr> 
#>  1 95       2006-07-27 Winter 2006            1  410529  5895093 e     
#>  2 96       2006-07-27 Winter 2006            2  410683  5895072 e     
#>  3 97       2006-07-27 Winter 2006            3  410440  5895054 ne    
#>  4 98       2006-07-27 Winter 2006            4  410545  5895038 e     
#>  5 99       2006-07-27 Winter 2006            5  410374  5895094 se    
#>  6 100      2006-07-27 Winter 2006            6  410210  5895023 e     
#>  7 101      2006-07-27 Winter 2006            7  410284  5895820 ne    
#>  8 212      2006-12-08 Spring 2006            1  410616  5899138 e     
#>  9 213      2006-12-08 Spring 2006            2  410623  5899408 e     
#> 10 214      2006-12-08 Spring 2006            3  410572  5898758 e     
#> # ℹ 11 more rows
#> # ℹ 35 more variables: `Landscape position` <chr>,
#> #   ExoticAnnualGrass_cover <dbl>, ExoticAnnualHerb_cover <dbl>,
#> #   ExoticPerennialHerb_cover <dbl>, ExoticPerennialGrass_cover <dbl>,
#> #   ExoticShrub_cover <dbl>, NativePerennialFern_cover <dbl>,
#> #   NativePerennialGrass_cover <dbl>, NativePerennialHerb_cover <dbl>,
#> #   NativePerennialGraminoid_cover <dbl>, NativeShrub_cover <dbl>, …
…
#>  8 227      2006-12-07 Spring 2006            4  348391  5873773 s     
#>  9 341      2007-05-09 Autumn 2007            1  348451  5873910 se    
#> 10 342      2007-05-09 Autumn 2007            2  348442  5873883 s     
#> 11 343      2007-05-09 Autumn 2007            3  348251  5873900 0     
#> 12 344      2007-05-09 Autumn 2007            4  348188  5873921 s     
#> # ℹ 35 more variables: `Landscape position` <chr>,
#> #   ExoticAnnualGrass_cover <dbl>, ExoticAnnualHerb_cover <dbl>,
#> #   ExoticPerennialHerb_cover <dbl>, ExoticPerennialGrass_cover <dbl>,
#> #   ExoticShrub_cover <dbl>, NativePerennialFern_cover <dbl>,
#> #   NativePerennialGrass_cover <dbl>, NativePerennialHerb_cover <dbl>,
#> #   NativePerennialGraminoid_cover <dbl>, NativeShrub_cover <dbl>,
#> #   BareGround_cover <dbl>, Litter_cover <dbl>, MossLichen_cover <dbl>, …
#> 
#> $Yorston
#> # A tibble: 21 × 42
#>    SurveyID Date       Season      `Quadrat no` Easting Northing Aspect
#>    <fct>    <date>     <chr>              <dbl>   <dbl>    <dbl> <chr> 
#>  1 111      2006-07-26 Winter 2006            1  359010  5894495 nw    
#>  2 112      2006-07-26 Winter 2006            2  359018  5894606 nw    
#>  3 113      2006-07-26 Winter 2006            3  358205  5895793 s     
#>  4 114      2006-07-26 Winter 2006            4  358932  5894600 nw    
#>  5 115      2006-07-26 Winter 2006            5  358861  5894634 w     
#>  6 116      2006-07-26 Winter 2006            6  358074  5895284 s     
#>  7 117      2006-07-26 Winter 2006            7  357961  5895704 ne    
#>  8 228      2006-11-17 Spring 2006            1  358010  5895886 w     
#>  9 229      2006-11-17 Spring 2006            2  358179  5895876 w     
#> 10 230      2006-11-17 Spring 2006            3  358917  5894850 w     
#> # ℹ 11 more rows
#> # ℹ 35 more variables: `Landscape position` <chr>,
#> #   ExoticAnnualGrass_cover <dbl>, ExoticAnnualHerb_cover <dbl>,
#> #   ExoticPerennialHerb_cover <dbl>, ExoticPerennialGrass_cover <dbl>,
#> #   ExoticShrub_cover <dbl>, NativePerennialFern_cover <dbl>,
#> #   NativePerennialGrass_cover <dbl>, NativePerennialHerb_cover <dbl>,
#> #   NativePerennialGraminoid_cover <dbl>, NativeShrub_cover <dbl>, …
#> 
named_group_split(ManyEcoEvo::blue_tit_data, hatch_Area)
#> $B
#> # A tibble: 726 × 41
#>    chick_ring_number hatch_year hatch_nest_breed_ID hatch_Box hatch_mom_Ring
#>    <chr>                  <dbl>               <dbl> <chr>     <chr>         
#>  1 P804103                 2001              201123 B100      .             
#>  2 P804104                 2001              201123 B100      .             
#>  3 P804106                 2001              201123 B100      .             
#>  4 P804107                 2001              201123 B100      .             
#>  5 P804108                 2001              201123 B100      .             
#>  6 P804110                 2001              201123 B100      .             
#>  7 P804112                 2001              201123 B100      .             
#>  8 P804115                 2001              201123 B100      .             
#>  9 P804117                 2001              201123 B100      .             
#> 10 P804118                 2001              201123 B100      .             
#> # ℹ 716 more rows
#> # ℹ 36 more variables: hatch_nest_dad_Ring <chr>, `Extra-pair_paternity` <chr>,
#> #   `Extra-pair_dad_ring` <chr>, `genetic_dad_ring_(WP_or_EP)` <chr>,
#> #   hatch_nest_LD <chr>, hatch_nest_CS <chr>, hatch_nest_OH <dbl>,
#> #   d0_hatch_nest_brood_size <chr>, d14_hatch_nest_brood_size <chr>,
#> #   rear_nest_breed_ID <dbl>, rear_area <chr>, rear_Box <chr>,
#> #   rear_mom_Ring <chr>, rear_dad_Ring <chr>, rear_nest_trt <dbl>, …
#> 
#> $C
#> # A tibble: 577 × 41
#>    chick_ring_number hatch_year hatch_nest_breed_ID hatch_Box hatch_mom_Ring
#>    <chr>                  <dbl>               <dbl> <chr>     <chr>         
#>  1 P804016                 2001              201194 C130      P803008       
#>  2 P804017                 2001              201194 C130      P803008       
#>  3 P804018                 2001              201167 C26       P803005       
#>  4 P804019                 2001              201194 C130      P803008       
#>  5 P804020                 2001              201167 C26       P803005       
#>  6 P804021                 2001              201194 C130      P803008       
#>  7 P804022                 2001              201194 C130      P803008       
#>  8 P804023                 2001              201194 C130      P803008       
#>  9 P804024                 2001              201167 C26       P803005       
#> 10 P804025                 2001              201194 C130      P803008       
#> # ℹ 567 more rows
#> # ℹ 36 more variables: hatch_nest_dad_Ring <chr>, `Extra-pair_paternity` <chr>,
#> #   `Extra-pair_dad_ring` <chr>, `genetic_dad_ring_(WP_or_EP)` <chr>,
#> #   hatch_nest_LD <chr>, hatch_nest_CS <chr>, hatch_nest_OH <dbl>,
#> #   d0_hatch_nest_brood_size <chr>, d14_hatch_nest_brood_size <chr>,
#> #   rear_nest_breed_ID <dbl>, rear_area <chr>, rear_Box <chr>,
#> #   rear_mom_Ring <chr>, rear_dad_Ring <chr>, rear_nest_trt <dbl>, …
…
